******************************************
*BZX84-C15
*NXP Semiconductors
*Voltage regulator diode
*
*IR    = 50nA  @ VR = 0,7V
*IZSM  = 2A    @ tp = 100?s
*VZmax = 15,6V @ IZ = 5mA
*
*Package: SOT23
*
*Package Pin 1: Anode
*Package Pin 2: not connected
*Package Pin 3: Cathode
*
*Simulator: PSPICE
*
******************************************
*
.MODEL BZX84-C15 D
+ IS=2.6665E-18
+ N=.82284
+ RS=.51617
+ IKF=11.760E-3
+ CJO=28.508E-12
+ M=.33087
+ VJ=.64691
+ ISR=38.989E-12
+ BV=15.119
+ IBV=.54544
+ TT=2.9720E-6
**
******************************************